Building the multi-assay experiment object
…
There are some duplicated rows in the data:

Code

strainfacts |> duplicated() |> sum()

[1] 661

For example rows 4 and 5 below

Code

strainfacts |> arrange(Sample) |> print(n = 10) 

# A tibble: 335,220 × 7
   Sample    taxon            Abundance USUBJID   arm      visit_name visit_type
   <chr>     <chr>                <dbl> <chr>     <chr>    <chr>      <chr>     
 1 202302505 Non L. crispatus  0.999    STI.00226 LACTIN-V Visit 0    Planned   
 2 202302505 undetermined      0.000981 STI.00226 LACTIN-V Visit 0    Planned   
 3 202302505 Strain 000        0        STI.00226 LACTIN-V Visit 0    Planned   
 4 202302505 CTV-05            0        STI.00226 LACTIN-V Visit 0    Planned   
 5 202302505 CTV-05            0        STI.00226 LACTIN-V Visit 0    Planned   
 6 202302505 Strain 003        0        STI.00226 LACTIN-V Visit 0    Planned   
 7 202302505 Strain 004        0        STI.00226 LACTIN-V Visit 0    Planned   
 8 202302505 Strain 005        0        STI.00226 LACTIN-V Visit 0    Planned   
 9 202302505 Strain 006        0        STI.00226 LACTIN-V Visit 0    Planned   
10 202302505 Strain 007        0        STI.00226 LACTIN-V Visit 0    Planned   
# ℹ 335,210 more rows
…
